{"description":"Documents published on or after 06/20/2026 and of type Rule, Proposed Rule, and Notice","count":719,"total_pages":50,"next_page_url":"https://www.federalregister.gov/api/v1/documents?conditions%5Bpublication_date%5D%5Bgte%5D=2026-06-20&conditions%5Btype%5D%5B%5D=RULE&conditions%5Btype%5D%5B%5D=PRORULE&conditions%5Btype%5D%5B%5D=NOTICE&format=json&order=newest&page=2&per_page=10&search_after_cursor=WzE3ODI2OTEyMDAwMDAsIjIwMjYtMTMwOTIiXQ","results":[{"title":"Medicaid Program; Community Engagement Requirement for Certain Individuals","type":"Rule","abstract":null,"document_number":"C1-2026-11094","html_url":"https://www.federalregister.gov/documents/2026/06/29/C1-2026-11094/medicaid-program-community-engagement-requirement-for-certain-individuals","pdf_url":"https://www.govinfo.gov/content/pkg/FR-2026-06-29/pdf/C1-2026-11094.pdf","public_inspection_pdf_url":null,"publication_date":"2026-06-29","agencies":[{"raw_name":"DEPARTMENT OF HEALTH AND HUMAN SERVICES","name":"Health and Human Services Department","id":221,"url":"https://www.federalregister.gov/agencies/health-and-human-services-department","json_url":"https://www.federalregister.gov/api/v1/agencies/221","parent_id":null,"slug":"health-and-human-services-department"},{"raw_name":"Centers for Medicare & Medicaid Services","name":"Centers for Medicare & Medicaid Services","id":45,"url":"https://www.federalregister.gov/agencies/centers-for-medicare-medicaid-services","json_url":"https://www.federalregister.gov/api/v1/agencies/45","parent_id":221,"slug":"centers-for-medicare-medicaid-services"}],"excerpts":null},{"title":"Real Estate Lending Escrow Accounts","type":"Rule","abstract":null,"document_number":"C1-2026-10036","html_url":"https://www.federalregister.gov/documents/2026/06/29/C1-2026-10036/real-estate-lending-escrow-accounts","pdf_url":"https://www.govinfo.gov/content/pkg/FR-2026-06-29/pdf/C1-2026-10036.pdf","public_inspection_pdf_url":"https://public-inspection.federalregister.gov/C1-2026-10036.pdf?1782477920","publication_date":"2026-06-29","agencies":[{"raw_name":"DEPARTMENT OF THE TREASURY","name":"Treasury Department","id":497,"url":"https://www.federalregister.gov/agencies/treasury-department","json_url":"https://www.federalregister.gov/api/v1/agencies/497","parent_id":null,"slug":"treasury-department"},{"raw_name":"Office of the Comptroller of the Currency","name":"Comptroller of the Currency","id":80,"url":"https://www.federalregister.gov/agencies/comptroller-of-the-currency","json_url":"https://www.federalregister.gov/api/v1/agencies/80","parent_id":497,"slug":"comptroller-of-the-currency"}],"excerpts":null},{"title":"Sunshine Act Meetings: Notice of Meeting Held With Less Than Seven Days' Advance Notice","type":"Notice","abstract":null,"document_number":"2026-13116","html_url":"https://www.federalregister.gov/documents/2026/06/29/2026-13116/sunshine-act-meetings-notice-of-meeting-held-with-less-than-seven-days-advance-notice","pdf_url":"https://www.govinfo.gov/content/pkg/FR-2026-06-29/pdf/2026-13116.pdf","public_inspection_pdf_url":null,"publication_date":"2026-06-29","agencies":[{"raw_name":"FEDERAL DEPOSIT INSURANCE CORPORATION","name":"Federal Deposit Insurance Corporation","id":164,"url":"https://www.federalregister.gov/agencies/federal-deposit-insurance-corporation","json_url":"https://www.federalregister.gov/api/v1/agencies/164","parent_id":null,"slug":"federal-deposit-insurance-corporation"}],"excerpts":null},{"title":"Sunshine Act Meetings","type":"Notice","abstract":null,"document_number":"2026-13115","html_url":"https://www.federalregister.gov/documents/2026/06/29/2026-13115/sunshine-act-meetings","pdf_url":"https://www.govinfo.gov/content/pkg/FR-2026-06-29/pdf/2026-13115.pdf","public_inspection_pdf_url":null,"publication_date":"2026-06-29","agencies":[{"raw_name":"FEDERAL DEPOSIT INSURANCE CORPORATION","name":"Federal Deposit Insurance Corporation","id":164,"url":"https://www.federalregister.gov/agencies/federal-deposit-insurance-corporation","json_url":"https://www.federalregister.gov/api/v1/agencies/164","parent_id":null,"slug":"federal-deposit-insurance-corporation"}],"excerpts":null},{"title":"Medical Devices; Orthopedic Devices; Classification of the Medial Knee Implanted Shock Absorber","type":"Rule","abstract":"The Food and Drug Administration (FDA) is classifying the medial knee implanted shock absorber into class II (special controls). The special controls that apply to the device type are identified in this order and will be part of the codified language for classification of the medial knee implanted shock absorber. We are taking this action because we have determined that classifying the device into class II will provide a reasonable assurance of safety and effectiveness of the device. We believe this action will also enhance patients' access to beneficial innovative devices, in part by reducing regulatory burdens.","document_number":"2026-13101","html_url":"https://www.federalregister.gov/documents/2026/06/29/2026-13101/medical-devices-orthopedic-devices-classification-of-the-medial-knee-implanted-shock-absorber","pdf_url":"https://www.govinfo.gov/content/pkg/FR-2026-06-29/pdf/2026-13101.pdf","public_inspection_pdf_url":null,"publication_date":"2026-06-29","agencies":[{"raw_name":"DEPARTMENT OF HEALTH AND HUMAN SERVICES","name":"Health and Human Services Department","id":221,"url":"https://www.federalregister.gov/agencies/health-and-human-services-department","json_url":"https://www.federalregister.gov/api/v1/agencies/221","parent_id":null,"slug":"health-and-human-services-department"},{"raw_name":"Food and Drug Administration","name":"Food and Drug Administration","id":199,"url":"https://www.federalregister.gov/agencies/food-and-drug-administration","json_url":"https://www.federalregister.gov/api/v1/agencies/199","parent_id":221,"slug":"food-and-drug-administration"}],"excerpts":"The Food and Drug Administration (FDA) is classifying the medial knee implanted shock absorber into class II (special controls). The special controls that apply to the device type are identified in this order and will be part of the codified language..."},{"title":"Cellular, Tissue, and Gene Therapies Advisory Committee; Notice of Meeting; Establishment of a Public Docket; Request for Comments-Biologics License Application (BLA) 125842 From Capricor, Inc. for Deramiocel (Human Allogeneic Cardiosphere-Derived Cells)","type":"Notice","abstract":"The Food and Drug Administration (FDA) announces a forthcoming public advisory committee meeting of the Cellular, Tissue, and Gene Therapies Advisory Committee (the Committee). The general function of the Committee is to provide advice and recommendations to FDA on regulatory issues. The meeting will be open to the public. FDA is establishing a docket for public comment on this document.","document_number":"2026-13096","html_url":"https://www.federalregister.gov/documents/2026/06/29/2026-13096/cellular-tissue-and-gene-therapies-advisory-committee-notice-of-meeting-establishment-of-a-public","pdf_url":"https://www.govinfo.gov/content/pkg/FR-2026-06-29/pdf/2026-13096.pdf","public_inspection_pdf_url":null,"publication_date":"2026-06-29","agencies":[{"raw_name":"DEPARTMENT OF HEALTH AND HUMAN SERVICES","name":"Health and Human Services Department","id":221,"url":"https://www.federalregister.gov/agencies/health-and-human-services-department","json_url":"https://www.federalregister.gov/api/v1/agencies/221","parent_id":null,"slug":"health-and-human-services-department"},{"raw_name":"Food and Drug Administration","name":"Food and Drug Administration","id":199,"url":"https://www.federalregister.gov/agencies/food-and-drug-administration","json_url":"https://www.federalregister.gov/api/v1/agencies/199","parent_id":221,"slug":"food-and-drug-administration"}],"excerpts":"The Food and Drug Administration (FDA) announces a forthcoming public advisory committee meeting of the Cellular, Tissue, and Gene Therapies Advisory Committee (the Committee). The general function of the Committee is to provide advice and..."},{"title":"Notice of Public Comments on Section 133 of the Expanding Public Lands Outdoor Recreation Experiences (EXPLORE) Act","type":"Notice","abstract":"Section 133 of the Expanding Public Lands Outdoor Recreation Experiences (EXPLORE) Act requires the Secretaries, after public notice and comment, to establish pilot protocols at not fewer than 10 land management units under the jurisdiction of each Secretary to model recreation use patterns, including low-use recreation activities and dispersed recreation activities, that may not be effectively measured by existing general and opportunistic survey and monitoring protocols. Through this notice, the agencies request public comment on the proposed pilot protocols and proposed land management units identified for those pilots.","document_number":"2026-13095","html_url":"https://www.federalregister.gov/documents/2026/06/29/2026-13095/notice-of-public-comments-on-section-133-of-the-expanding-public-lands-outdoor-recreation","pdf_url":"https://www.govinfo.gov/content/pkg/FR-2026-06-29/pdf/2026-13095.pdf","public_inspection_pdf_url":null,"publication_date":"2026-06-29","agencies":[{"raw_name":"DEPARTMENT OF AGRICULTURE","name":"Agriculture Department","id":12,"url":"https://www.federalregister.gov/agencies/agriculture-department","json_url":"https://www.federalregister.gov/api/v1/agencies/12","parent_id":null,"slug":"agriculture-department"},{"raw_name":"Forest Service","name":"Forest Service","id":209,"url":"https://www.federalregister.gov/agencies/forest-service","json_url":"https://www.federalregister.gov/api/v1/agencies/209","parent_id":12,"slug":"forest-service"}],"excerpts":"Section 133 of the Expanding Public Lands Outdoor Recreation Experiences (EXPLORE) Act requires the Secretaries, after public notice and comment, to establish pilot protocols at not fewer than 10 land management units under the jurisdiction of each..."},{"title":"Agency Information Collection Activities; Submission to the Office of Management and Budget for Review and Approval; Comment Request; Survey of Postgraduate Employment for the Foreign Language and Area Studies (FLAS) Fellowship Program","type":"Notice","abstract":"In accordance with the Paperwork Reduction Act (PRA) of 1995, the Department is proposing revision of a currently approved information collection request (ICR).","document_number":"2026-13094","html_url":"https://www.federalregister.gov/documents/2026/06/29/2026-13094/agency-information-collection-activities-submission-to-the-office-of-management-and-budget-for","pdf_url":"https://www.govinfo.gov/content/pkg/FR-2026-06-29/pdf/2026-13094.pdf","public_inspection_pdf_url":null,"publication_date":"2026-06-29","agencies":[{"raw_name":"DEPARTMENT OF EDUCATION","name":"Education Department","id":126,"url":"https://www.federalregister.gov/agencies/education-department","json_url":"https://www.federalregister.gov/api/v1/agencies/126","parent_id":null,"slug":"education-department"}],"excerpts":"In accordance with the Paperwork Reduction Act (PRA) of 1995, the Department is proposing revision of a currently approved information collection request (ICR)."},{"title":"Center for Scientific Review; Notice of Closed Meetings","type":"Notice","abstract":null,"document_number":"2026-13093","html_url":"https://www.federalregister.gov/documents/2026/06/29/2026-13093/center-for-scientific-review-notice-of-closed-meetings","pdf_url":"https://www.govinfo.gov/content/pkg/FR-2026-06-29/pdf/2026-13093.pdf","public_inspection_pdf_url":null,"publication_date":"2026-06-29","agencies":[{"raw_name":"DEPARTMENT OF HEALTH AND HUMAN SERVICES","name":"Health and Human Services Department","id":221,"url":"https://www.federalregister.gov/agencies/health-and-human-services-department","json_url":"https://www.federalregister.gov/api/v1/agencies/221","parent_id":null,"slug":"health-and-human-services-department"},{"raw_name":"National Institutes of Health","name":"National Institutes of Health","id":353,"url":"https://www.federalregister.gov/agencies/national-institutes-of-health","json_url":"https://www.federalregister.gov/api/v1/agencies/353","parent_id":221,"slug":"national-institutes-of-health"}],"excerpts":null},{"title":"Technical Guidelines for the Production of Regenerative Agricultural Biofuel Feedstocks","type":"Rule","abstract":"This final rule revises technical guidelines for quantifying, reporting, and verifying the carbon intensity of agricultural commodity crops used in the production of biofuels relative to an estimated national average that were established by a prior January 2025 interim rule. Specifically, the January 2025 interim rule established guidelines for the implementation, reporting, verification, and quantification of carbon intensity (CI) of certain agricultural commodities at the field-scale. This final rule makes revisions to the January 2025 interim rule that were requested by commenters or that are otherwise necessary because of intervening Executive action. The revised guidelines articulate an approach for farm producers to quantify the change in net emissions associated with crops produced using one or more authorized practices. The revised guidelines also articulate a framework for how information regarding emissions, resulting from the production of biofuel feedstock commodity crops, could be reported and tracked throughout the supply chain.","document_number":"2026-13092","html_url":"https://www.federalregister.gov/documents/2026/06/29/2026-13092/technical-guidelines-for-the-production-of-regenerative-agricultural-biofuel-feedstocks","pdf_url":"https://www.govinfo.gov/content/pkg/FR-2026-06-29/pdf/2026-13092.pdf","public_inspection_pdf_url":null,"publication_date":"2026-06-29","agencies":[{"raw_name":"DEPARTMENT OF AGRICULTURE","name":"Agriculture Department","id":12,"url":"https://www.federalregister.gov/agencies/agriculture-department","json_url":"https://www.federalregister.gov/api/v1/agencies/12","parent_id":null,"slug":"agriculture-department"},{"raw_name":"Office of Energy and Environmental Policy","name":"Energy and Environmental Policy Office","id":620,"url":"https://www.federalregister.gov/agencies/energy-and-environmental-policy-office","json_url":"https://www.federalregister.gov/api/v1/agencies/620","parent_id":12,"slug":"energy-and-environmental-policy-office"}],"excerpts":"This final rule revises technical guidelines for quantifying, reporting, and verifying the carbon intensity of agricultural commodity crops used in the production of biofuels relative to an estimated national average that were established by a prior..."}]}